…
Here we check so that the correct number of imputations were performed.

```r
all %>%
  group_by(delta, Parameter) %>%
  summarise(n = n())
```

```
## # A tibble: 24 × 3
## # Groups:   delta [6]
##    delta Parameter     n
##    <chr> <chr>     <int>
##  1 -1    wx2 ~ wx1   160
##  2 -1    wx2 ~ wy1   160
##  3 -1    wy2 ~ wx1   160
##  4 -1    wy2 ~ wy1   160
##  5 -2    wx2 ~ wx1   160
##  6 -2    wx2 ~ wy1   160
##  7 -2    wy2 ~ wx1   160
##  8 -2    wy2 ~ wy1   160
##  9 0     wx2 ~ wx1   160
## 10 0     wx2 ~ wy1   160
## # … with 14 more rows
```
…
